{
  "projects": [
    {
      "key": "SSYSTEMS",
      "name": "SOUL HTML5 | Systems",
      "plans": [
        {
          "key": "PARENT",
          "name": "Parent",
          "gitNamespace": "soul",
          "gitRepo": "soul-systems-parent",
          "jobType": "MavenSoulParent",
          "jobArgs": "-N -PMVRec,full-packer --settings ${system.HOME}/.m2/settings-morphis.xml",
          "scheduleCron": "0 0 0 1/1 * ? *",
          "gitSubmodule": true,
          "isReleasable": true,
          "isTestSonarEnabled": false,
          "isTestEnabled": false,
          "childrenDependencies": [
            "LIBS"
          ]
        },
        {
          "key": "PARENT",
          "name": "Parent",
          "gitNamespace": "soul",
          "gitRepo": "soul-database-parent",
          "jobType": "MavenSoulParent",
          "jobArgs": "-N -PMVRec,full-packer --settings ${system.HOME}/.m2/settings-morphis.xml",
          "scheduleCron": "0 0 0 1/1 * ? *",
          "gitSubmodule": true,
          "isReleasable": true,
          "isTestSonarEnabled": false,
          "isTestEnabled": false,
          "childrenDependencies": [
            "LIBS"
          ]
        },
        {
          "key": "LIBS",
          "name": "Libs",
          "gitNamespace": "soul",
          "gitRepo": "soul-systems-libs",
          "jobType": "Maven",
          "jobArgs": "-PMVRec --settings ${system.HOME}/.m2/settings-morphis.xml",
          "childrenDependencies": [
            "SAMPLES/PARENT",
            "APOIO/PARENT",
            "ATENDIMENTO/PARENT",
            "CONTROLADORIA/PARENT",
            "DIAGNOSTICO/PARENT",
            "FATURCONVENIO/PARENT",
            "FATURSUS/PARENT",
            "FINANCEIRO/PARENT",
            "GLOBAL/PARENT",
            "INTEGRACAO/PARENT",
            "INTERNACAO/PARENT",
            "PLANO/PARENT",
            "SUPRIMENTOS/PARENT"
          ]
        },
        {
          "key": "FOUNDATION",
          "gitNamespace": "soul/foundation",
          "gitRepo": "soul-foundation"
        },
        {
          "key": "CORE",
          "gitNamespace": "soul/foundation",
          "gitRepo": "core"
        },
        {
          "key": "DATABASE-PACKER",
          "gitNamespace": "soul/foundation",
          "gitRepo": "database-packer"
        },
        {
          "gitNamespace": "soul/product",
          "gitRepo": "database"
        },
        {
          "key": "PRODUCT",
          "name": "SOUL - Product",
          "gitNamespace": "soul",
          "gitRepo": "soul-product",
          "isTestSonarEnabled": false,
          "isTestEnabled": false,
          "jobType": "Maven",
          "jobArgs": "-PMVRec,full-packer,frames --settings ${system.HOME}/.m2/settings-morphis.xml",
          "isDependent": true,
          "publishedArtifacts": [
            {
              "name": "war-artifact",
              "location": "",
              "copyPattern": "**/target/*.war"
            },
            {
              "name": "conf-artifact",
              "location": "",
              "copyPattern": "**/target/*.zip"
            }
          ]
        }
      ]
    },
    {
      "key": "SAMPLES",
      "name": "SOUL HTML5 | Samples",
      "plans": [
        {
          "key": "PARENT",
          "name": "Samples",
          "gitNamespace": "soul/samples",
          "gitRepo": "soul-samples",
          "gitSubmodule": false,
          "isTestSonarEnabled": false,
          "isTestEnabled": false,
          "jobType": "MavenSoulParent",
          "jobArgs": "-N -PMVRec,product-packer --settings ${system.HOME}/.m2/settings-morphis.xml",
          "childrenDependencies": [
            "TOUR",
            "MONITOR"
          ]
        },
        {
          "key": "PRODUCT",
          "name": "Samples - Product",
          "gitNamespace": "soul/samples",
          "gitRepo": "soul-samples",
          "jobType": "MavenSoulProduct",
          "jobArgs": "-PMVRec,full-packer --settings ${system.HOME}/.m2/settings-morphis.xml",
          "jobArgsDelivery": "-PMVRec,product-packer,frames --settings ${system.HOME}/.m2/settings-morphis.xml",
          "buildDirectory": "product",
          "isTestSonarEnabled": false,
          "isTestEnabled": false,
          "isDependent": true
        },
        {
          "key": "TOUR",
          "name": "TOUR - Exemplos do Soul MV",
          "gitNamespace": "soul/samples",
          "gitRepo": "tour",
          "jobType": "Maven",
          "jobArgs": "-PMVRec,product-packer --settings ${system.HOME}/.m2/settings-morphis.xml",
          "isTestSonarEnabled": false,
          "isTestEnabled": false,
          "isAutoDependent": false,
          "childrenDependencies": [
            "PRODUCT"
          ]
        },
        {
          "key": "MONITOR",
          "name": "MONITOR - Monitor",
          "gitNamespace": "soul/samples",
          "gitRepo": "monitor",
          "jobType": "Maven",
          "jobArgs": "-PMVRec,product-packer --settings ${system.HOME}/.m2/settings-morphis.xml",
          "isTestSonarEnabled": false,
          "isTestEnabled": false,
          "isAutoDependent": false,
          "childrenDependencies": [
            "PRODUCT"
          ]
        }
      ]
    },
    {
      "key": "APOIO",
      "name": "SOUL HTML5 | Apoio",
      "plans": [
        {
          "key": "PARENT",
          "name": "Apoio",
          "gitNamespace": "soul/apoio",
          "gitRepo": "soul-apoio",
          "gitSubmodule": true,
          "isTestSonarEnabled": false,
          "isTestEnabled": false,
          "jobType": "MavenSoulParent",
          "jobArgs": "-N -PMVRec,product-packer --settings ${system.HOME}/.m2/settings-morphis.xml",
          "childrenDependencies": [
            "ACRO",
            "AMAP",
            "AMDC",
            "HOCA",
            "PBSA",
            "PSND",
            "SAC",
            "SIGE"
          ]
        },
        {
          "key": "PRODUCT",
          "name": "Apoio - Product",
          "gitNamespace": "soul/apoio",
          "gitRepo": "soul-apoio",
          "isTestSonarEnabled": false,
          "isTestEnabled": false,
          "jobType": "MavenSoulProduct",
          "jobArgs": "-PMVRec,full-packer --settings ${system.HOME}/.m2/settings-morphis.xml",
          "jobArgsDelivery": "-PMVRec,product-packer,frames --settings ${system.HOME}/.m2/settings-morphis.xml",
          "buildDirectory": "product",
          "isDependent": true,
          "childrenDependencies": [
            "SSYSTEMS/PRODUCT"
          ]
        },
        {
          "key": "ACRO",
          "name": "ACRO - Lavanderia e Rouparia",
          "gitNamespace": "soul/apoio",
          "gitRepo": "acro",
          "jobType": "Maven",
          "jobArgs": "-PMVRec,product-packer --settings ${system.HOME}/.m2/settings-morphis.xml",
          "isTestSonarEnabled": false,
          "isTestEnabled": false,
          "isAutoDependent": false,
          "childrenDependencies": [
            "PRODUCT"
          ]
        },
        {
          "key": "AMAP",
          "name": "AMAP - Serviço Arquivo Médico",
          "gitNamespace": "soul/apoio",
          "gitRepo": "amap",
          "jobType": "Maven",
          "jobArgs": "-PMVRec,product-packer --settings ${system.HOME}/.m2/settings-morphis.xml",
          "isTestSonarEnabled": false,
          "isTestEnabled": false,
          "isAutoDependent": false,
          "childrenDependencies": [
            "PRODUCT"
          ]
        },
        {
          "key": "AMDC",
          "name": "AMDC - Diretoria Clínica",
          "gitNamespace": "soul/apoio",
          "gitRepo": "amdc",
          "jobType": "Maven",
          "jobArgs": "-PMVRec,product-packer --settings ${system.HOME}/.m2/settings-morphis.xml",
          "isTestSonarEnabled": false,
          "isTestEnabled": false,
          "isAutoDependent": false,
          "childrenDependencies": [
            "PRODUCT"
          ]
        },
        {
          "key": "HOCA",
          "name": "HOCA - Internação Domiciliar (Home Care)",
          "gitNamespace": "soul/apoio",
          "gitRepo": "hoca",
          "jobType": "Maven",
          "jobArgs": "-PMVRec,product-packer --settings ${system.HOME}/.m2/settings-morphis.xml",
          "isTestSonarEnabled": false,
          "isTestEnabled": false,
          "isAutoDependent": false,
          "childrenDependencies": [
            "PRODUCT"
          ]
        },
        {
          "key": "PBSA",
          "name": "PBSA - Banco de Sangue",
          "gitNamespace": "soul/apoio",
          "gitRepo": "pbsa",
          "jobType": "Maven",
          "jobArgs": "-PMVRec,product-packer --settings ${system.HOME}/.m2/settings-morphis.xml",
          "isTestSonarEnabled": false,
          "isTestEnabled": false,
          "isAutoDependent": false,
          "childrenDependencies": [
            "PRODUCT"
          ]
        },
        {
          "key": "PSND",
          "name": "PSND - Nutrição e Dietética",
          "gitNamespace": "soul/apoio",
          "gitRepo": "psnd",
          "jobType": "Maven",
          "jobArgs": "-PMVRec,product-packer --settings ${system.HOME}/.m2/settings-morphis.xml",
          "isTestSonarEnabled": false,
          "isTestEnabled": false,
          "isAutoDependent": false,
          "childrenDependencies": [
            "PRODUCT"
          ]
        },
        {
          "key": "SAC",
          "name": "SAC - Serviço Atendimento ao Cliente",
          "gitNamespace": "soul/apoio",
          "gitRepo": "sac",
          "jobType": "Maven",
          "jobArgs": "-PMVRec,product-packer --settings ${system.HOME}/.m2/settings-morphis.xml",
          "isTestSonarEnabled": false,
          "isTestEnabled": false,
          "isAutoDependent": false,
          "childrenDependencies": [
            "PRODUCT"
          ]
        },
        {
          "key": "SIGE",
          "name": "SIGE - Gerenciamento",
          "gitNamespace": "soul/apoio",
          "gitRepo": "sige",
          "jobType": "Maven",
          "jobArgs": "-PMVRec,product-packer --settings ${system.HOME}/.m2/settings-morphis.xml",
          "isTestSonarEnabled": false,
          "isTestEnabled": false,
          "isAutoDependent": false,
          "childrenDependencies": [
            "PRODUCT"
          ]
        }
      ]
    },
    {
      "key": "ATENDIMENTO",
      "name": "SOUL HTML5 | Atendimento",
      "plans": [
        {
          "key": "PARENT",
          "name": "Atendimento",
          "gitNamespace": "soul/atendimento",
          "gitRepo": "soul-atendimento",
          "gitSubmodule": true,
          "isTestSonarEnabled": false,
          "isTestEnabled": false,
          "jobType": "MavenSoulParent",
          "jobArgs": "-N -PMVRec,product-packer --settings ${system.HOME}/.m2/settings-morphis.xml",
          "childrenDependencies": [
            "ADMPAC",
            "PAEU",
            "PAGU",
            "PARA",
            "SCMA",
            "ATP"
          ]
        },
        {
          "key": "PRODUCT",
          "name": "Atendimento - Product",
          "gitNamespace": "soul/atendimento",
          "gitRepo": "soul-atendimento",
          "isTestSonarEnabled": false,
          "isTestEnabled": false,
          "jobType": "MavenSoulProduct",
          "jobArgs": "-PMVRec,full-packer --settings ${system.HOME}/.m2/settings-morphis.xml",
          "jobArgsDelivery": "-PMVRec,product-packer,frames --settings ${system.HOME}/.m2/settings-morphis.xml",
          "buildDirectory": "product",
          "isDependent": true,
          "childrenDependencies": [
            "SSYSTEMS/PRODUCT"
          ]
        },
        {
          "key": "ADMPAC",
          "name": "ADMPAC - Admissão de Paciente",
          "gitNamespace": "soul/atendimento",
          "gitRepo": "admpac",
          "jobType": "Maven",
          "jobArgs": "-PMVRec,product-packer --settings ${system.HOME}/.m2/settings-morphis.xml",
          "isTestSonarEnabled": false,
          "isTestEnabled": false,
          "isAutoDependent": false,
          "childrenDependencies": [
            "PRODUCT"
          ]
        },
        {
          "key": "PAEU",
          "name": "PAEU - Urgência e Emergência",
          "gitNamespace": "soul/atendimento",
          "gitRepo": "paeu",
          "jobType": "Maven",
          "jobArgs": "-PMVRec,product-packer --settings ${system.HOME}/.m2/settings-morphis.xml",
          "isTestSonarEnabled": false,
          "isTestEnabled": false,
          "isAutoDependent": false,
          "childrenDependencies": [
            "PRODUCT"
          ]
        },
        {
          "key": "PAGU",
          "name": "PAGU - Gerenciamento de Unidades",
          "gitNamespace": "soul/atendimento",
          "gitRepo": "pagu",
          "jobType": "Maven",
          "jobArgs": "-PMVRec,product-packer --settings ${system.HOME}/.m2/settings-morphis.xml",
          "isTestSonarEnabled": false,
          "isTestEnabled": false,
          "isAutoDependent": false,
          "childrenDependencies": [
            "PRODUCT"
          ]
        },
        {
          "key": "PARA",
          "name": "PARA - Ambulatório",
          "gitNamespace": "soul/atendimento",
          "gitRepo": "para",
          "jobType": "Maven",
          "jobArgs": "-PMVRec,product-packer --settings ${system.HOME}/.m2/settings-morphis.xml",
          "isTestSonarEnabled": false,
          "isTestEnabled": false,
          "isAutoDependent": false,
          "childrenDependencies": [
            "PRODUCT"
          ]
        },
        {
          "key": "SCMA",
          "name": "SCMA - Central de Agendamento  ",
          "gitNamespace": "soul/atendimento",
          "gitRepo": "scma",
          "jobType": "Maven",
          "jobArgs": "-PMVRec,product-packer --settings ${system.HOME}/.m2/settings-morphis.xml",
          "isTestSonarEnabled": false,
          "isTestEnabled": false,
          "isAutoDependent": false,
          "childrenDependencies": [
            "PRODUCT"
          ]
        },
        {
          "key": "ATP",
          "name": "ATP - Atenção Primária",
          "gitNamespace": "soul/atendimento",
          "gitRepo": "atp",
          "jobType": "Maven",
          "jobArgs": "-PMVRec,product-packer --settings ${system.HOME}/.m2/settings-morphis.xml",
          "isTestSonarEnabled": false,
          "isTestEnabled": false,
          "isAutoDependent": false,
          "childrenDependencies": [
            "PRODUCT"
          ]
        }
      ]
    },
    {
      "key": "CONTROLADORIA",
      "name": "SOUL HTML5 | Controladoria",
      "plans": [
        {
          "key": "PARENT",
          "name": "Controladoria",
          "gitNamespace": "soul/controladoria",
          "gitRepo": "soul-controladoria",
          "gitSubmodule": true,
          "isTestSonarEnabled": false,
          "isTestEnabled": false,
          "jobType": "MavenSoulParent",
          "jobArgs": "-N -PMVRec,product-packer --settings ${system.HOME}/.m2/settings-morphis.xml",
          "childrenDependencies": [
            "ACPR",
            "FCCT",
            "FFCH",
            "GCTO",
            "ORCA",
            "ALCA"
          ]
        },
        {
          "key": "PRODUCT",
          "name": "Controladoria - Product",
          "gitNamespace": "soul/controladoria",
          "gitRepo": "soul-controladoria",
          "isTestSonarEnabled": false,
          "isTestEnabled": false,
          "jobType": "MavenSoulProduct",
          "jobArgs": "-PMVRec,full-packer --settings ${system.HOME}/.m2/settings-morphis.xml",
          "jobArgsDelivery": "-PMVRec,product-packer,frames --settings ${system.HOME}/.m2/settings-morphis.xml",
          "buildDirectory": "product",
          "isDependent": true,
          "childrenDependencies": [
            "SSYSTEMS/PRODUCT"
          ]
        },
        {
          "key": "ACPR",
          "name": "ACPR - Controle Patrimonial",
          "gitNamespace": "soul/controladoria",
          "gitRepo": "acpr",
          "jobType": "Maven",
          "jobArgs": "-PMVRec,product-packer --settings ${system.HOME}/.m2/settings-morphis.xml",
          "isTestSonarEnabled": false,
          "isTestEnabled": false,
          "isAutoDependent": false,
          "childrenDependencies": [
            "PRODUCT"
          ]
        },
        {
          "key": "FCCT",
          "name": "FCCT - Contabilidade",
          "gitNamespace": "soul/controladoria",
          "gitRepo": "fcct",
          "jobType": "Maven",
          "jobArgs": "-PMVRec,product-packer --settings ${system.HOME}/.m2/settings-morphis.xml",
          "isTestSonarEnabled": false,
          "isTestEnabled": false,
          "isAutoDependent": false,
          "childrenDependencies": [
            "PRODUCT"
          ]
        },
        {
          "key": "FFCH",
          "name": "FFCH - Custos",
          "gitNamespace": "soul/controladoria",
          "gitRepo": "ffch",
          "jobType": "Maven",
          "jobArgs": "-PMVRec,product-packer --settings ${system.HOME}/.m2/settings-morphis.xml",
          "isTestSonarEnabled": false,
          "isTestEnabled": false,
          "isAutoDependent": false,
          "childrenDependencies": [
            "PRODUCT"
          ]
        },
        {
          "key": "GCTO",
          "name": "GCTO - Gestão de Contratos",
          "gitNamespace": "soul/controladoria",
          "gitRepo": "gcto",
          "jobType": "Maven",
          "jobArgs": "-PMVRec,product-packer --settings ${system.HOME}/.m2/settings-morphis.xml",
          "isTestSonarEnabled": false,
          "isTestEnabled": false,
          "isAutoDependent": false,
          "childrenDependencies": [
            "PRODUCT"
          ]
        },
        {
          "key": "ALCA",
          "name": "ALCA - Gestão de Alçada",
          "gitNamespace": "soul/controladoria",
          "gitRepo": "alca",
          "jobType": "Maven",
          "jobArgs": "-PMVRec,product-packer --settings ${system.HOME}/.m2/settings-morphis.xml",
          "isTestSonarEnabled": false,
          "isTestEnabled": false,
          "isAutoDependent": false,
          "childrenDependencies": [
            "PRODUCT"
          ]
        },
        {
          "key": "ORCA",
          "name": "ORCA - Controle de Orçamento Corporativo",
          "gitNamespace": "soul/controladoria",
          "gitRepo": "orca",
          "jobType": "Maven",
          "jobArgs": "-PMVRec,product-packer --settings ${system.HOME}/.m2/settings-morphis.xml",
          "isTestSonarEnabled": false,
          "isTestEnabled": false,
          "isAutoDependent": false,
          "childrenDependencies": [
            "PRODUCT"
          ]
        }
      ]
    },
    {
      "key": "DIAGNOSTICO",
      "name": "SOUL HTML5 | Diagnóstico",
      "plans": [
        {
          "key": "PARENT",
          "name": "Diagnóstico",
          "gitNamespace": "soul/diagnostico",
          "gitRepo": "soul-diagnostico",
          "gitSubmodule": true,
          "isTestSonarEnabled": false,
          "isTestEnabled": false,
          "jobType": "MavenSoulParent",
          "jobArgs": "-N -PMVRec,product-packer --settings ${system.HOME}/.m2/settings-morphis.xml",
          "childrenDependencies": [
            "PSDI",
            "PSSD"
          ]
        },
        {
          "key": "PRODUCT",
          "name": "Diagnostico - Product",
          "gitNamespace": "soul/diagnostico",
          "gitRepo": "soul-diagnostico",
          "isTestSonarEnabled": false,
          "isTestEnabled": false,
          "jobType": "MavenSoulProduct",
          "jobArgs": "-PMVRec,full-packer --settings ${system.HOME}/.m2/settings-morphis.xml",
          "jobArgsDelivery": "-PMVRec,product-packer,frames --settings ${system.HOME}/.m2/settings-morphis.xml",
          "buildDirectory": "product",
          "isDependent": true,
          "childrenDependencies": [
            "SSYSTEMS/PRODUCT"
          ]
        },
        {
          "key": "PSDI",
          "name": "PSDI - Diagnóstico por Imagem",
          "gitNamespace": "soul/diagnostico",
          "gitRepo": "psdi",
          "jobType": "Maven",
          "jobArgs": "-PMVRec,product-packer --settings ${system.HOME}/.m2/settings-morphis.xml",
          "isTestSonarEnabled": false,
          "isTestEnabled": false,
          "isAutoDependent": false,
          "childrenDependencies": [
            "PRODUCT"
          ]
        },
        {
          "key": "PSSD",
          "name": "PSSD - Laboratório de Análises Clínicas",
          "gitNamespace": "soul/diagnostico",
          "gitRepo": "pssd",
          "jobType": "Maven",
          "jobArgs": "-PMVRec,product-packer --settings ${system.HOME}/.m2/settings-morphis.xml",
          "isTestSonarEnabled": false,
          "isTestEnabled": false,
          "isAutoDependent": false,
          "childrenDependencies": [
            "PRODUCT"
          ]
        }
      ]
    },
    {
      "key": "FATURCONVENIO",
      "name": "SOUL HTML5 | Faturamento Convênio",
      "plans": [
        {
          "key": "PARENT",
          "name": "Faturamento Convênio",
          "gitNamespace": "soul/faturamento-convenio",
          "gitRepo": "soul-faturamento-convenio",
          "gitSubmodule": true,
          "isTestSonarEnabled": false,
          "isTestEnabled": false,
          "jobType": "MavenSoulParent",
          "jobArgs": "-N -PMVRec,product-packer --settings ${system.HOME}/.m2/settings-morphis.xml",
          "childrenDependencies": [
            "FFCV",
            "FNRM",
            "MOVDOC",
            "SSPF"
          ]
        },
        {
          "key": "PRODUCT",
          "name": "Faturamento Convênio - Product",
          "gitNamespace": "soul/faturamento-convenio",
          "gitRepo": "soul-faturamento-convenio",
          "isTestSonarEnabled": false,
          "isTestEnabled": false,
          "jobType": "MavenSoulProduct",
          "jobArgs": "-PMVRec,full-packer --settings ${system.HOME}/.m2/settings-morphis.xml",
          "jobArgsDelivery": "-PMVRec,product-packer,frames --settings ${system.HOME}/.m2/settings-morphis.xml",
          "buildDirectory": "product",
          "isDependent": true,
          "childrenDependencies": [
            "SSYSTEMS/PRODUCT"
          ]
        },
        {
          "key": "FFCV",
          "name": "FFCV - Faturamento de Convênios e Particulares",
          "gitNamespace": "soul/faturamento-convenio",
          "gitRepo": "ffcv",
          "jobType": "Maven",
          "jobArgs": "-PMVRec,product-packer --settings ${system.HOME}/.m2/settings-morphis.xml",
          "isTestSonarEnabled": false,
          "isTestEnabled": false,
          "isAutoDependent": false,
          "childrenDependencies": [
            "PRODUCT"
          ]
        },
        {
          "key": "FNRM",
          "name": "FNRM - Repasse Médico",
          "gitNamespace": "soul/faturamento-convenio",
          "gitRepo": "fnrm",
          "jobType": "Maven",
          "jobArgs": "-PMVRec,product-packer --settings ${system.HOME}/.m2/settings-morphis.xml",
          "isTestSonarEnabled": false,
          "isTestEnabled": false,
          "isAutoDependent": false,
          "childrenDependencies": [
            "PRODUCT"
          ]
        },
        {
          "key": "MOVDOC",
          "name": "MOVDOC - Movimentação de Documentos",
          "gitNamespace": "soul/faturamento-convenio",
          "gitRepo": "movdoc",
          "jobType": "Maven",
          "jobArgs": "-PMVRec,product-packer --settings ${system.HOME}/.m2/settings-morphis.xml",
          "isTestSonarEnabled": false,
          "isTestEnabled": false,
          "isAutoDependent": false,
          "childrenDependencies": [
            "PRODUCT"
          ]
        },
        {
          "key": "SSPF",
          "name": "SSPF - Sistema de Saída de Produto Faturado",
          "gitNamespace": "soul/faturamento-convenio",
          "gitRepo": "sspf",
          "jobType": "Maven",
          "jobArgs": "-PMVRec,product-packer --settings ${system.HOME}/.m2/settings-morphis.xml",
          "isTestSonarEnabled": false,
          "isTestEnabled": false,
          "isAutoDependent": false,
          "childrenDependencies": [
            "PRODUCT"
          ]
        }
      ]
    },
    {
      "key": "FATURSUS",
      "name": "SOUL HTML5 | Faturamento SUS",
      "plans": [
        {
          "key": "PARENT",
          "name": "Faturamento SUS",
          "gitNamespace": "soul/faturamento-sus",
          "gitRepo": "soul-faturamento-sus",
          "gitSubmodule": true,
          "isTestSonarEnabled": false,
          "isTestEnabled": false,
          "jobType": "MavenSoulParent",
          "jobArgs": "-N -PMVRec,product-packer --settings ${system.HOME}/.m2/settings-morphis.xml",
          "childrenDependencies": [
            "CIHA",
            "FFAS",
            "FFIS",
            "SISCO"
          ]
        },
        {
          "key": "PRODUCT",
          "name": "Faturamento SUS - Product",
          "gitNamespace": "soul/faturamento-sus",
          "gitRepo": "soul-faturamento-sus",
          "isTestSonarEnabled": false,
          "isTestEnabled": false,
          "jobType": "MavenSoulProduct",
          "jobArgs": "-PMVRec,full-packer --settings ${system.HOME}/.m2/settings-morphis.xml",
          "jobArgsDelivery": "-PMVRec,product-packer,frames --settings ${system.HOME}/.m2/settings-morphis.xml",
          "buildDirectory": "product",
          "isDependent": true,
          "childrenDependencies": [
            "SSYSTEMS/PRODUCT"
          ]
        },
        {
          "key": "CIHA",
          "name": "CIHA - Comunic. de Inform. Hospitalar e Ambulatorial SUS",
          "gitNamespace": "soul/faturamento-sus",
          "gitRepo": "ciha",
          "jobType": "Maven",
          "jobArgs": "-PMVRec,product-packer --settings ${system.HOME}/.m2/settings-morphis.xml",
          "isTestSonarEnabled": false,
          "isTestEnabled": false,
          "isAutoDependent": false,
          "childrenDependencies": [
            "PRODUCT"
          ]
        },
        {
          "key": "FFAS",
          "name": "FFAS - Faturamento Ambulatoria SUS (BPA e APAC)",
          "gitNamespace": "soul/faturamento-sus",
          "gitRepo": "ffas",
          "jobType": "Maven",
          "jobArgs": "-PMVRec,product-packer --settings ${system.HOME}/.m2/settings-morphis.xml",
          "isTestSonarEnabled": false,
          "isTestEnabled": false,
          "isAutoDependent": false,
          "childrenDependencies": [
            "PRODUCT"
          ]
        },
        {
          "key": "FFIS",
          "name": "FFIS - Faturamento de Internação SUS (AIH)",
          "gitNamespace": "soul/faturamento-sus",
          "gitRepo": "ffis",
          "jobType": "Maven",
          "jobArgs": "-PMVRec,product-packer --settings ${system.HOME}/.m2/settings-morphis.xml",
          "isTestSonarEnabled": false,
          "isTestEnabled": false,
          "isAutoDependent": false,
          "childrenDependencies": [
            "PRODUCT"
          ]
        },
        {
          "key": "SISCO",
          "name": "SISCO - Sistema de Info. Câncer de Cólo de Útero",
          "gitNamespace": "soul/faturamento-sus",
          "gitRepo": "sisco",
          "jobType": "Maven",
          "jobArgs": "-PMVRec,product-packer --settings ${system.HOME}/.m2/settings-morphis.xml",
          "isTestSonarEnabled": false,
          "isTestEnabled": false,
          "isAutoDependent": false,
          "childrenDependencies": [
            "PRODUCT"
          ]
        }
      ]
    },
    {
      "key": "FINANCEIRO",
      "name": "SOUL HTML5 | Financeiro",
      "plans": [
        {
          "key": "PARENT",
          "name": "Financeiro",
          "gitNamespace": "soul/financeiro",
          "gitRepo": "soul-financeiro",
          "gitSubmodule": true,
          "isTestSonarEnabled": false,
          "isTestEnabled": false,
          "jobType": "MavenSoulParent",
          "jobArgs": "-N -PMVRec,product-packer --settings ${system.HOME}/.m2/settings-morphis.xml",
          "childrenDependencies": [
            "COTA",
            "FFAG",
            "FIEA",
            "FNCB",
            "FNCC",
            "FNCP",
            "FNCT",
            "FNFI"
          ]
        },
        {
          "key": "PRODUCT",
          "name": "Financeiro - Product",
          "gitNamespace": "soul/financeiro",
          "gitRepo": "soul-financeiro",
          "isTestSonarEnabled": false,
          "isTestEnabled": false,
          "jobType": "MavenSoulProduct",
          "jobArgs": "-PMVRec,full-packer --settings ${system.HOME}/.m2/settings-morphis.xml",
          "jobArgsDelivery": "-PMVRec,product-packer,frames --settings ${system.HOME}/.m2/settings-morphis.xml",
          "buildDirectory": "product",
          "isDependent": true,
          "childrenDependencies": [
            "SSYSTEMS/PRODUCT"
          ]
        },
        {
          "key": "COTA",
          "name": "COTA - Controle de cotas",
          "gitNamespace": "soul/financeiro",
          "gitRepo": "cota",
          "jobType": "Maven",
          "jobArgs": "-PMVRec,product-packer --settings ${system.HOME}/.m2/settings-morphis.xml",
          "isTestSonarEnabled": false,
          "isTestEnabled": false,
          "isAutoDependent": false,
          "childrenDependencies": [
            "PRODUCT"
          ]
        },
        {
          "key": "FFAG",
          "name": "FFAG - Auditoria e Controle de Recursos e Glosas",
          "gitNamespace": "soul/financeiro",
          "gitRepo": "ffag",
          "jobType": "Maven",
          "jobArgs": "-PMVRec,product-packer --settings ${system.HOME}/.m2/settings-morphis.xml",
          "isTestSonarEnabled": false,
          "isTestEnabled": false,
          "isAutoDependent": false,
          "childrenDependencies": [
            "PRODUCT"
          ]
        },
        {
          "key": "FIEA",
          "name": "FIEA - Intercâmbio Eletrônico de Arquivos",
          "gitNamespace": "soul/financeiro",
          "gitRepo": "fiea",
          "jobType": "Maven",
          "jobArgs": "-PMVRec,product-packer --settings ${system.HOME}/.m2/settings-morphis.xml",
          "isTestSonarEnabled": false,
          "isTestEnabled": false,
          "isAutoDependent": false,
          "childrenDependencies": [
            "PRODUCT"
          ]
        },
        {
          "key": "FNCB",
          "name": "FNCB - Controle Bancário",
          "gitNamespace": "soul/financeiro",
          "gitRepo": "fncb",
          "jobType": "Maven",
          "jobArgs": "-PMVRec,product-packer --settings ${system.HOME}/.m2/settings-morphis.xml",
          "isTestSonarEnabled": false,
          "isTestEnabled": false,
          "isAutoDependent": false,
          "childrenDependencies": [
            "PRODUCT"
          ]
        },
        {
          "key": "FNCC",
          "name": "FNCC - Caixa",
          "gitNamespace": "soul/financeiro",
          "gitRepo": "fncc",
          "jobType": "Maven",
          "jobArgs": "-PMVRec,product-packer --settings ${system.HOME}/.m2/settings-morphis.xml",
          "isTestSonarEnabled": false,
          "isTestEnabled": false,
          "isAutoDependent": false,
          "childrenDependencies": [
            "PRODUCT"
          ]
        },
        {
          "key": "FNCP",
          "name": "FNCP - Contas a Pagar",
          "gitNamespace": "soul/financeiro",
          "gitRepo": "fncp",
          "jobType": "Maven",
          "jobArgs": "-PMVRec,product-packer --settings ${system.HOME}/.m2/settings-morphis.xml",
          "isTestSonarEnabled": false,
          "isTestEnabled": false,
          "isAutoDependent": false,
          "childrenDependencies": [
            "PRODUCT"
          ]
        },
        {
          "key": "FNCT",
          "name": "FNCT - Tesouraria",
          "gitNamespace": "soul/financeiro",
          "gitRepo": "fnct",
          "jobType": "Maven",
          "jobArgs": "-PMVRec,product-packer --settings ${system.HOME}/.m2/settings-morphis.xml",
          "isTestSonarEnabled": false,
          "isTestEnabled": false,
          "isAutoDependent": false,
          "childrenDependencies": [
            "PRODUCT"
          ]
        },
        {
          "key": "FNFI",
          "name": "FNFI - Controle Financeiro (Contas a Pagar, Contas a Receber e Bancos)",
          "gitNamespace": "soul/financeiro",
          "gitRepo": "fnfi",
          "jobType": "Maven",
          "jobArgs": "-PMVRec,product-packer --settings ${system.HOME}/.m2/settings-morphis.xml",
          "isTestSonarEnabled": false,
          "isTestEnabled": false,
          "isAutoDependent": false,
          "childrenDependencies": [
            "PRODUCT"
          ]
        }
      ]
    },
    {
      "key": "GLOBAL",
      "name": "SOUL HTML5 | Global",
      "plans": [
        {
          "key": "PARENT",
          "name": "Global",
          "gitNamespace": "soul/global",
          "gitRepo": "soul-global",
          "gitSubmodule": true,
          "isTestSonarEnabled": false,
          "isTestEnabled": false,
          "jobType": "MavenSoulParent",
          "jobArgs": "-N -PMVRec,product-packer --settings ${system.HOME}/.m2/settings-morphis.xml",
          "childrenDependencies": [
            "GLOBAL",
            "SGU"
          ]
        },
        {
          "key": "PRODUCT",
          "name": "Global - Product",
          "gitNamespace": "soul/global",
          "gitRepo": "soul-global",
          "isTestSonarEnabled": false,
          "isTestEnabled": false,
          "jobType": "MavenSoulProduct",
          "jobArgs": "-PMVRec,full-packer --settings ${system.HOME}/.m2/settings-morphis.xml",
          "jobArgsDelivery": "-PMVRec,product-packer,frames --settings ${system.HOME}/.m2/settings-morphis.xml",
          "buildDirectory": "product",
          "isDependent": true,
          "childrenDependencies": [
            "SSYSTEMS/PRODUCT"
          ]
        },
        {
          "key": "GLOBAL",
          "name": "GLOBAL - Global",
          "gitNamespace": "soul/global",
          "gitRepo": "global",
          "jobType": "Maven",
          "jobArgs": "-PMVRec,product-packer --settings ${system.HOME}/.m2/settings-morphis.xml",
          "isTestSonarEnabled": false,
          "isTestEnabled": false,
          "isAutoDependent": false,
          "childrenDependencies": [
            "PRODUCT"
          ]
        },
        {
          "key": "SGU",
          "name": "SGU - Gestão de Usuários",
          "gitNamespace": "soul/global",
          "gitRepo": "sgu",
          "jobType": "Maven",
          "jobArgs": "-PMVRec,product-packer --settings ${system.HOME}/.m2/settings-morphis.xml",
          "isTestSonarEnabled": false,
          "isTestEnabled": false,
          "isAutoDependent": false,
          "childrenDependencies": [
            "PRODUCT"
          ]
        }
      ]
    },
    {
      "key": "INTEGRACAO",
      "name": "SOUL HTML5 | Integração",
      "plans": [
        {
          "key": "PARENT",
          "name": "Integração",
          "gitNamespace": "soul/integracao",
          "gitRepo": "soul-integracao",
          "gitSubmodule": true,
          "isTestSonarEnabled": false,
          "isTestEnabled": false,
          "jobType": "MavenSoulParent",
          "jobArgs": "-N -PMVRec,product-packer --settings ${system.HOME}/.m2/settings-morphis.xml",
          "childrenDependencies": [
            "IMV"
          ]
        },
        {
          "key": "PRODUCT",
          "name": "Integração - Product",
          "gitNamespace": "soul/integracao",
          "gitRepo": "soul-integracao",
          "isTestSonarEnabled": false,
          "isTestEnabled": false,
          "jobType": "MavenSoulProduct",
          "jobArgs": "-PMVRec,full-packer --settings ${system.HOME}/.m2/settings-morphis.xml",
          "jobArgsDelivery": "-PMVRec,product-packer,frames --settings ${system.HOME}/.m2/settings-morphis.xml",
          "buildDirectory": "product",
          "isDependent": true,
          "childrenDependencies": [
            "SSYSTEMS/PRODUCT"
          ]
        },
        {
          "key": "IMV",
          "name": "IMV - Integração",
          "gitNamespace": "soul/integracao",
          "gitRepo": "imv",
          "jobType": "Maven",
          "jobArgs": "-PMVRec,product-packer --settings ${system.HOME}/.m2/settings-morphis.xml",
          "isTestSonarEnabled": false,
          "isTestEnabled": false,
          "isAutoDependent": false,
          "childrenDependencies": [
            "PRODUCT"
          ]
        }
      ]
    },
    {
      "key": "INTERNACAO",
      "name": "SOUL HTML5 | Internação",
      "plans": [
        {
          "key": "PARENT",
          "name": "Internação",
          "gitNamespace": "soul/internacao",
          "gitRepo": "soul-internacao",
          "gitSubmodule": true,
          "isTestSonarEnabled": false,
          "isTestEnabled": false,
          "jobType": "MavenSoulParent",
          "jobArgs": "-N -PMVRec,product-packer --settings ${system.HOME}/.m2/settings-morphis.xml",
          "childrenDependencies": [
            "FSCC",
            "PARI",
            "PSIH",
            "ZELA"
          ]
        },
        {
          "key": "PRODUCT",
          "name": "Internação - Product",
          "gitNamespace": "soul/internacao",
          "gitRepo": "soul-internacao",
          "isTestSonarEnabled": false,
          "isTestEnabled": false,
          "jobType": "MavenSoulProduct",
          "jobArgs": "-PMVRec,full-packer --settings ${system.HOME}/.m2/settings-morphis.xml",
          "jobArgsDelivery": "-PMVRec,product-packer,frames --settings ${system.HOME}/.m2/settings-morphis.xml",
          "buildDirectory": "product",
          "isDependent": true,
          "childrenDependencies": [
            "SSYSTEMS/PRODUCT"
          ]
        },
        {
          "key": "FSCC",
          "name": "FSCC - Centro Cirúrgico e Obstétrico",
          "gitNamespace": "soul/internacao",
          "gitRepo": "fscc",
          "jobType": "Maven",
          "jobArgs": "-PMVRec,product-packer --settings ${system.HOME}/.m2/settings-morphis.xml",
          "isTestSonarEnabled": false,
          "isTestEnabled": false,
          "isAutoDependent": false,
          "childrenDependencies": [
            "PRODUCT"
          ]
        },
        {
          "key": "PARI",
          "name": "PARI - Internação",
          "gitNamespace": "soul/internacao",
          "gitRepo": "pari",
          "jobType": "Maven",
          "jobArgs": "-PMVRec,product-packer --settings ${system.HOME}/.m2/settings-morphis.xml",
          "isTestSonarEnabled": false,
          "isTestEnabled": false,
          "isAutoDependent": false,
          "childrenDependencies": [
            "PRODUCT"
          ]
        },
        {
          "key": "PSIH",
          "name": "PSIH - Controle de Infecção Hospitalar",
          "gitNamespace": "soul/internacao",
          "gitRepo": "psih",
          "jobType": "Maven",
          "jobArgs": "-PMVRec,product-packer --settings ${system.HOME}/.m2/settings-morphis.xml",
          "isTestSonarEnabled": false,
          "isTestEnabled": false,
          "isAutoDependent": false,
          "childrenDependencies": [
            "PRODUCT"
          ]
        },
        {
          "key": "ZELA",
          "name": "ZELA - Controle de Zeladoria",
          "gitNamespace": "soul/internacao",
          "gitRepo": "zela",
          "jobType": "Maven",
          "jobArgs": "-PMVRec,product-packer --settings ${system.HOME}/.m2/settings-morphis.xml",
          "isTestSonarEnabled": false,
          "isTestEnabled": false,
          "isAutoDependent": false,
          "childrenDependencies": [
            "PRODUCT"
          ]
        }
      ]
    },
    {
      "key": "PLANO",
      "name": "SOUL HTML5 | Plano de Saúde",
      "plans": [
        {
          "key": "PARENT",
          "name": "Plano Saude",
          "gitNamespace": "soul/plano-saude",
          "gitRepo": "soul-plano-saude",
          "gitSubmodule": true,
          "isTestSonarEnabled": false,
          "isTestEnabled": false,
          "jobType": "MavenSoulParent",
          "jobArgs": "-N -PMVRec,product-packer --settings ${system.HOME}/.m2/settings-morphis.xml",
          "childrenDependencies": [
            "MVSAUDE"
          ]
        },
        {
          "key": "PRODUCT",
          "name": "Plano Saude - Product",
          "gitNamespace": "soul/plano-saude",
          "gitRepo": "soul-plano-saude",
          "isTestSonarEnabled": false,
          "isTestEnabled": false,
          "jobType": "MavenSoulProduct",
          "jobArgs": "-PMVRec,full-packer --settings ${system.HOME}/.m2/settings-morphis.xml",
          "jobArgsDelivery": "-PMVRec,product-packer,frames --settings ${system.HOME}/.m2/settings-morphis.xml",
          "buildDirectory": "product",
          "isDependent": true,
          "childrenDependencies": [
            "SSYSTEMS/PRODUCT"
          ]
        },
        {
          "key": "MVSAUDE",
          "name": "MVSAUDE - Plano de Saúde",
          "gitNamespace": "soul/plano-saude",
          "gitRepo": "mvsaude",
          "jobType": "Maven",
          "jobArgs": "-PMVRec,product-packer --settings ${system.HOME}/.m2/settings-morphis.xml",
          "isTestSonarEnabled": false,
          "isTestEnabled": false,
          "isAutoDependent": false,
          "childrenDependencies": [
            "PRODUCT"
          ]
        }
      ]
    },
    {
      "key": "SUPRIMENTOS",
      "name": "SOUL HTML5 | Suprimentos",
      "plans": [
        {
          "key": "PARENT",
          "name": "Suprimentos",
          "gitNamespace": "soul/suprimentos",
          "gitRepo": "soul-suprimentos",
          "gitSubmodule": true,
          "isTestSonarEnabled": false,
          "isTestEnabled": false,
          "jobType": "MavenSoulParent",
          "jobArgs": "-N -PMVRec,product-packer --settings ${system.HOME}/.m2/settings-morphis.xml",
          "childrenDependencies": [
            "ACMA",
            "MGCE",
            "MGCO",
            "MGES",
            "MGFE"
          ]
        },
        {
          "key": "PRODUCT",
          "name": "Suprimentos - Product",
          "gitNamespace": "soul/suprimentos",
          "gitRepo": "soul-suprimentos",
          "isTestSonarEnabled": false,
          "isTestEnabled": false,
          "jobType": "MavenSoulProduct",
          "jobArgs": "-PMVRec,full-packer --settings ${system.HOME}/.m2/settings-morphis.xml",
          "jobArgsDelivery": "-PMVRec,product-packer,frames --settings ${system.HOME}/.m2/settings-morphis.xml",
          "buildDirectory": "product",
          "isDependent": true,
          "childrenDependencies": [
            "SSYSTEMS/PRODUCT"
          ]
        },
        {
          "key": "ACMA",
          "name": "ACMA - Manutanção",
          "gitNamespace": "soul/suprimentos",
          "gitRepo": "acma",
          "jobType": "Maven",
          "jobArgs": "-PMVRec,product-packer --settings ${system.HOME}/.m2/settings-morphis.xml",
          "isTestSonarEnabled": false,
          "isTestEnabled": false,
          "isAutoDependent": false,
          "childrenDependencies": [
            "PRODUCT"
          ]
        },
        {
          "key": "MGCE",
          "name": "MGCE - Central de Materiais Esterilizados",
          "gitNamespace": "soul/suprimentos",
          "gitRepo": "mgce",
          "jobType": "Maven",
          "jobArgs": "-PMVRec,product-packer --settings ${system.HOME}/.m2/settings-morphis.xml",
          "isTestSonarEnabled": false,
          "isTestEnabled": false,
          "isAutoDependent": false,
          "childrenDependencies": [
            "PRODUCT"
          ]
        },
        {
          "key": "MGCO",
          "name": "MGCO - Compras",
          "gitNamespace": "soul/suprimentos",
          "gitRepo": "mgco",
          "jobType": "Maven",
          "jobArgs": "-PMVRec,product-packer --settings ${system.HOME}/.m2/settings-morphis.xml",
          "isTestSonarEnabled": false,
          "isTestEnabled": false,
          "isAutoDependent": false,
          "childrenDependencies": [
            "PRODUCT"
          ]
        },
        {
          "key": "MGES",
          "name": "MGES - Almoxarifado",
          "gitNamespace": "soul/suprimentos",
          "gitRepo": "mges",
          "jobType": "Maven",
          "jobArgs": "-PMVRec,product-packer --settings ${system.HOME}/.m2/settings-morphis.xml",
          "isTestSonarEnabled": false,
          "isTestEnabled": false,
          "isAutoDependent": false,
          "childrenDependencies": [
            "PRODUCT"
          ]
        },
        {
          "key": "MGFE",
          "name": "MGFE - Farmácia Externa",
          "gitNamespace": "soul/suprimentos",
          "gitRepo": "mgfe",
          "jobType": "Maven",
          "jobArgs": "-PMVRec,product-packer --settings ${system.HOME}/.m2/settings-morphis.xml",
          "isTestSonarEnabled": false,
          "isTestEnabled": false,
          "isAutoDependent": false,
          "childrenDependencies": [
            "PRODUCT"
          ]
        }
      ]
    }
  ]
}